{
  "server": "hub-cloud.browserstack.com",
  "user": "sanjay351",
  "key": "VxYtBTczj2XZtyL8xZXi",

  "capabilities": {
    "browserstack.debug": true
  },

  "environments": {
    "firefox": {
      "browser": "firefox"
      "version": "46"
      
    }
  }
}